<?xml version="1.0" encoding="UTF-8" standalone="no"?>
<!-- Created with Inkscape (http://www.inkscape.org/) -->

<svg
   xmlns:dc="http://purl.org/dc/elements/1.1/"
   xmlns:cc="http://creativecommons.org/ns#"
   xmlns:rdf="http://www.w3.org/1999/02/22-rdf-syntax-ns#"
   xmlns:svg="http://www.w3.org/2000/svg"
   xmlns="http://www.w3.org/2000/svg"
   xmlns:sodipodi="http://sodipodi.sourceforge.net/DTD/sodipodi-0.dtd"
   xmlns:inkscape="http://www.inkscape.org/namespaces/inkscape"
   width="290.98801mm"
   height="39.950001mm"
   viewBox="0 0 290.98801 39.950001"
   version="1.1"
   id="svg844"
   inkscape:version="0.92.4 (5da689c313, 2019-01-14)"
   sodipodi:docname="Banner-Logo.svg"
   inkscape:export-filename="F:\Backup G-13\Rutheneum-Bote\Chefredaktion\Logos\Banner-Logo.png"
   inkscape:export-xdpi="87.288834"
   inkscape:export-ydpi="87.288834">
  <defs
     id="defs838" />
  <sodipodi:namedview
     id="base"
     pagecolor="#ffffff"
     bordercolor="#666666"
     borderopacity="1.0"
     inkscape:pageopacity="0.0"
     inkscape:pageshadow="2"
     inkscape:zoom="0.35"
     inkscape:cx="244.28571"
     inkscape:cy="545.71429"
     inkscape:document-units="mm"
     inkscape:current-layer="layer1"
     showgrid="false"
     inkscape:window-width="1920"
     inkscape:window-height="1001"
     inkscape:window-x="-9"
     inkscape:window-y="-9"
     inkscape:window-maximized="1" />
  <metadata
     id="metadata841">
    <rdf:RDF>
      <cc:Work
         rdf:about="">
        <dc:format>image/svg+xml</dc:format>
        <dc:type
           rdf:resource="http://purl.org/dc/dcmitype/StillImage" />
        <dc:title></dc:title>
      </cc:Work>
    </rdf:RDF>
  </metadata>
  <g
     inkscape:label="Ebene 1"
     inkscape:groupmode="layer"
     id="layer1"
     transform="translate(0,-257.05)">
    <g
       id="g1424"
       transform="translate(354.13687,159.18571)">
      <rect
         style="opacity:0.98999999;fill:#c00000;fill-opacity:1;stroke:none;stroke-width:0.09467555;stroke-linecap:round;stroke-linejoin:miter;stroke-miterlimit:4;stroke-dasharray:none;stroke-opacity:1;paint-order:normal"
         id="rect815-1"
         width="290.98795"
         height="39.950245"
         x="-354.13684"
         y="97.864166"
         ry="0.020664202" />
      <text
         xml:space="preserve"
         style="font-style:normal;font-variant:normal;font-weight:900;font-stretch:normal;font-size:30.04786682px;line-height:1.25;font-family:Merriweather;-inkscape-font-specification:'Merriweather Heavy';letter-spacing:0px;word-spacing:0px;opacity:0.98999999;fill:#ffffff;fill-opacity:1;stroke:none;stroke-width:0.75119674"
         x="-342.16174"
         y="128.66183"
         id="text819-4"><tspan
           sodipodi:role="line"
           id="tspan817-5"
           x="-342.16174"
           y="128.66183"
           style="font-style:normal;font-variant:normal;font-weight:900;font-stretch:normal;font-family:Merriweather;-inkscape-font-specification:'Merriweather Heavy';fill:#ffffff;fill-opacity:1;stroke-width:0.75119674">Rutheneum-Bote</tspan></text>
    </g>
  </g>
</svg>
