<?xml version="1.0" encoding="utf-8"?>
<!-- Generator: Adobe Illustrator 18.1.1, SVG Export Plug-In . SVG Version: 6.00 Build 0)  -->
<!DOCTYPE svg PUBLIC "-//W3C//DTD SVG 1.1//EN" "http://www.w3.org/Graphics/SVG/1.1/DTD/svg11.dtd">
<svg version="1.1" id="Layer_1" xmlns="http://www.w3.org/2000/svg" xmlns:xlink="http://www.w3.org/1999/xlink" x="0px" y="0px"
	 viewBox="0 0 902 256.6" enable-background="new 0 0 902 256.6" xml:space="preserve">
<g>
	<g>
		<path fill="#5596FB" d="M242.9,13.2c6.7,2.7,13,6.1,19,9.9l2.3-3.5c-6.2-4-12.8-7.4-19.7-10.2L242.9,13.2L242.9,13.2z"/>
		<path fill="#5596FB" d="M143.4,237.2c-41.3-19.7-69.8-61.8-69.7-110.6C73.6,61,125.2,7.5,189.9,4.2L189.7,0
			c-67,3.4-120.3,58.8-120.3,126.6c0,50.4,29.5,94,72.1,114.4L143.4,237.2L143.4,237.2z"/>
		<path fill="#5596FB" d="M260.1,25.9c16.6,10.6,30.5,25.2,40.1,42.4c9.7,17.2,15.2,37.1,15.2,58.3c0,32.9-13.3,62.7-34.9,84.3
			c-21.6,21.6-51.4,34.9-84.3,34.9c-18.4,0-35.8-4.2-51.4-11.6l-4.7,9.7c17,8.1,36,12.7,56,12.7c35.9,0,68.4-14.6,92-38.1
			c23.5-23.5,38.1-56.1,38.1-92c0-23.1-6-44.8-16.6-63.6c-10.5-18.8-25.6-34.7-43.7-46.2L260.1,25.9L260.1,25.9z"/>
		<path fill="#DA0071" d="M181.3,231.6c-11.8-1.7-22.9-5.2-33.1-10.4l-1.9,3.7c10.6,5.4,22.2,9.1,34.4,10.8L181.3,231.6L181.3,231.6
			z"/>
		<path fill="#DA0071" d="M290.6,85.9c5.4,12.5,8.4,26.2,8.4,40.7c0,28.4-11.5,54-30.1,72.7c-18.6,18.6-44.3,30.1-72.7,30.1
			c-4.9,0-9.7-0.3-14.5-1l-1.5,10.7c5.2,0.7,10.5,1.1,16,1.1c31.3,0,59.8-12.7,80.3-33.3c20.5-20.5,33.3-49,33.3-80.3
			c0-16-3.3-31.2-9.2-45L290.6,85.9L290.6,85.9z"/>
		<path fill="#DA0071" d="M267.1,52.2c9.9,9.5,18,20.9,23.5,33.7l9.9-4.3c-6.1-14.1-15-26.8-26-37.3L267.1,52.2L267.1,52.2z"/>
		<path fill="#DA0071" d="M167.9,24.4c9-2.5,18.5-3.8,28.3-3.8c28.4,0,54.1,11.1,73.1,29.3l2.9-3c-19.8-18.8-46.6-30.4-76-30.4
			c-10.2,0-20.1,1.4-29.5,4L167.9,24.4L167.9,24.4z"/>
		<path fill="#DA0071" d="M148.2,221.2c-34.5-17.5-58.1-53.3-58.1-94.6c0-20.8,6-40.2,16.4-56.6l-3.5-2.2c-10.8,17-17,37.2-17,58.9
			c0,42.9,24.5,80.1,60.4,98.3L148.2,221.2L148.2,221.2z"/>
		<path fill="#ADFF3C" d="M170.6,44.6c8.1-2.5,16.6-3.9,25.5-3.9c23.7,0,45.2,9.6,60.7,25.2c15.5,15.6,25.2,37,25.2,60.7
			c0,23.7-9.6,45.2-25.2,60.7c-15.6,15.5-37,25.2-60.7,25.2c-22.5,0-43-8.7-58.3-22.8l-7.1,7.7c17.2,15.9,40.2,25.6,65.5,25.6
			c26.6,0,50.7-10.8,68.2-28.2c17.4-17.4,28.2-41.6,28.2-68.2c0-26.6-10.8-50.7-28.2-68.2c-17.4-17.4-41.6-28.2-68.2-28.2
			c-10,0-19.6,1.5-28.7,4.3L170.6,44.6L170.6,44.6z"/>
		<path fill="#ADFF3C" d="M107.4,119.7c2.8-37,28.2-67.6,62.3-78.3l-1.2-3.9c-35.8,11.1-62.3,43.2-65.2,81.8L107.4,119.7
			L107.4,119.7z"/>
		<path fill="#F1CC30" d="M144.9,178c-13.2-13.2-21.3-31.3-21.3-51.4c0-13.9,3.9-26.8,10.6-37.8c6.7-11,16.3-20.1,27.7-26.2
			l-4.8-8.9c-13,7-23.9,17.3-31.6,29.9c-7.7,12.5-12.1,27.3-12.1,43.1c0,22.9,9.3,43.6,24.3,58.6L144.9,178L144.9,178z"/>
		<path fill="#F1CC30" d="M236.7,62.5c21.2,13.4,35.3,37.1,35.3,64.1c0,20.9-8.5,39.9-22.2,53.6c-13.7,13.7-32.6,22.2-53.6,22.2
			c-20.9,0-39.8-8.5-53.5-22.1l-2.8,2.8c14.4,14.4,34.3,23.3,56.3,23.3c44,0,79.7-35.7,79.7-79.7c0-28.4-14.8-53.3-37.1-67.4
			L236.7,62.5L236.7,62.5z"/>
		<path fill="#F1CC30" d="M160.4,59.8c8.4-4.5,17.7-7.5,27.6-8.5l-0.4-3.9c-10.4,1.1-20.2,4.3-29.1,9L160.4,59.8L160.4,59.8z"/>
		<path fill="#7FDFFD" d="M184.1,67.2c3.9-0.8,8-1.2,12.2-1.2c12.6,0,24.2,3.8,33.9,10.3l2.2-3.3c-10.3-7-22.7-11-36.1-11
			c-4.5,0-8.8,0.5-13,1.3L184.1,67.2L184.1,67.2z"/>
		<path fill="#7FDFFD" d="M224.1,180.4c-8.3,4.3-17.8,6.7-27.8,6.7c-23.2,0-43.4-13.1-53.6-32.3l-3.5,1.9
			c10.8,20.5,32.4,34.4,57.1,34.4c10.7,0,20.8-2.6,29.6-7.2L224.1,180.4L224.1,180.4z"/>
		<path fill="#7FDFFD" d="M228.5,79c7.6,5.2,14,12.1,18.4,20.3c4.4,8.1,6.9,17.4,6.9,27.4c0,11.1-3.2,21.5-8.6,30.3
			c-5.5,8.8-13.2,16-22.5,20.8l4.7,9.2c10.9-5.6,20-14.1,26.5-24.5c6.4-10.4,10.2-22.6,10.2-35.7c0-11.7-3-22.7-8.2-32.3
			c-5.2-9.6-12.7-17.8-21.7-23.9L228.5,79L228.5,79z"/>
	</g>
	<path fill="#FFFFFF" d="M87.8,82.2H103v98H92.9L93.1,93l-38,87.1h-7L9.9,93l0.3,87.1H0v-98h15.4l36.3,82.2L87.8,82.2z M354.8,152.6
		c-0.1,10.6-5,18.6-13.4,23c-5.8,3.6-11.4,4.6-21.1,4.6H293v-98h26.2c8.9,0,15,1.4,19.3,4.4c7.9,4.5,10.6,12.5,10.6,20.2
		c0,11.5-6.5,17.4-13.1,20.8C353.6,133,354.8,148.1,354.8,152.6z M304,124.2h15.1c4.5,0,8.5-0.6,11.5-2c6.2-3.4,7.9-8.7,7.9-14.6
		c0-7.2-3.8-12.1-7.9-14c-2.5-1.3-5.8-2.4-12.2-2.4H304V124.2z M344.2,151.9c0-7.9-4.2-13.9-10.5-16.6c-4.4-1.9-7.7-2.1-13.8-2.1
		h-16v37h18c4,0,8.3-0.4,11.9-1.9C339.7,165.7,344.1,160.6,344.2,151.9z M373,180.2h11v-98h-11V180.2z M419,82.2h-11v98h48v-10h-37
		V82.2z M502.1,126c-14.8-5-24.5-7.9-24.4-19.9c0-10.2,8.1-16.9,17.9-16.9c13,0,16.2,10,17.4,16h10.9c-1.6-18-15.6-25.2-27.8-25.2
		c-15,0-29.4,9.7-29.1,27.1c0,18.5,17.1,23.6,25,26c11.4,3.7,23.2,6.8,23.2,20.5c0,10.9-9.4,18.5-19.6,18.5c-6.1,0-18-2.9-19.6-19.9
		h-11c0.7,19,14.3,29.2,30.7,29.2c18.3,0,30.3-12.6,30.3-28.7C525.9,134.6,511.3,129.5,502.1,126z M539,180.2h11v-98h-11V180.2z
		 M619.1,82.4c20.5,0,32.6,13.8,36.2,20.8H668c-6.2-14-22.7-31.2-48.9-31.2c-31.9,0-55.2,24.6-55.2,54.8c0,30.7,24,54.9,55.4,54.9
		c23.4,0,41.9-14.5,48.8-30.5h-12.8c-2.6,4-13.9,20-36.2,20c-24.7,0-43.5-19.4-43.5-44.5C575.6,101.9,594.3,82.4,619.1,82.4z
		 M739,125.2h-48v-43h-10v98h10v-45h48v45h11v-98h-11V125.2z M768,180.2h54v-10h-43v-35h43v-10h-43v-34h43v-9h-54V180.2z
		 M896.2,132.3c4.1-5.6,6-12.6,5.8-19.2c0-11.1-5.4-21.4-13.4-26.1c-5-3.2-12.2-4.8-27.5-4.8H836v98h11v-89h14.9
		c8.9,0,15,0.5,19.9,3.7c6.1,4,9.7,11.7,9.7,19c0,7-2.3,13.1-7.4,18.1c-5.3,4.9-14.8,5.2-21.7,5.2h-3.2l27.7,43h11.9l-24.4-36.9
		C883.4,142.3,890.4,140.3,896.2,132.3z"/>
</g>
</svg>
